[
  {
    "PRODUCT_ID": "WF",
    "PRODUCT_NAME": "Workflow",
    "PRICE": "$199.99",
    "DESCRIPTION": "Lorem ipsum dolor sit amet",
    "QUANTITY": 0
  },
  {
    "PRODUCT_ID": "DocGen",
    "PRODUCT_NAME": "Document Generation",
    "PRICE": "$9.99",
    "DESCRIPTION": "Lorem ipsum dolor sit amet",
    "QUANTITY": 0
  },
  {
    "PRODUCT_ID": "form",
    "PRODUCT_NAME": "Form",
    "PRICE": "$99.99",
    "DESCRIPTION": "Lorem ipsum dolor sit amet",
    "QUANTITY": 0
  },
  {
    "PRODUCT_ID": "PM",
    "PRODUCT_NAME": "Process Mapping",
    "PRICE": "",
    "DESCRIPTION": "Lorem ipsum dolor sit amet",
    "QUANTITY": 0
  }
]
